<svg xmlns="http://www.w3.org/2000/svg" width="26.607" height="25.5" viewBox="0 0 26.607 25.5">
  <g id="home" transform="translate(-28.152 -15.5)">
    <path id="th-list" d="M7.469,42.063v4.375a1.26,1.26,0,0,1-1.2,1.313H1.2A1.26,1.26,0,0,1,0,46.438V42.063A1.26,1.26,0,0,1,1.2,40.75H6.268a1.26,1.26,0,0,1,1.2,1.313ZM0,50.813v4.375A1.26,1.26,0,0,0,1.2,56.5H6.268a1.26,1.26,0,0,0,1.2-1.312V50.813a1.26,1.26,0,0,0-1.2-1.312H1.2A1.26,1.26,0,0,0,0,50.813ZM6.268,32H1.2A1.26,1.26,0,0,0,0,33.313v4.375A1.26,1.26,0,0,0,1.2,39H6.268a1.26,1.26,0,0,0,1.2-1.312V33.313A1.26,1.26,0,0,0,6.268,32Zm4,24.5H24.407a1.26,1.26,0,0,0,1.2-1.312V50.813a1.26,1.26,0,0,0-1.2-1.312H10.269a1.26,1.26,0,0,0-1.2,1.313v4.375a1.26,1.26,0,0,0,1.2,1.313Zm-1.2-23.187v4.375A1.26,1.26,0,0,0,10.269,39H24.407a1.26,1.26,0,0,0,1.2-1.312V33.313A1.26,1.26,0,0,0,24.407,32H10.269a1.26,1.26,0,0,0-1.2,1.313Zm1.2,14.438H24.407a1.26,1.26,0,0,0,1.2-1.312V42.063a1.26,1.26,0,0,0-1.2-1.312H10.269a1.26,1.26,0,0,0-1.2,1.313v4.375a1.26,1.26,0,0,0,1.2,1.313Z" transform="translate(28.652 -16)" fill="none" stroke="#333" stroke-width="1"/>
  </g>
</svg>
