<?xml version="1.0" encoding="utf-8"?>
<!-- Generator: Adobe Illustrator 21.1.0, SVG Export Plug-In . SVG Version: 6.00 Build 0)  -->
<svg version="1.1" id="Layer_1" xmlns="http://www.w3.org/2000/svg" xmlns:xlink="http://www.w3.org/1999/xlink" x="0px" y="0px"
	 viewBox="0 0 33 30" style="enable-background:new 0 0 33 30;" xml:space="preserve">
<style type="text/css">
	.st0{fill:#017CBF;}
</style>
<path class="st0" d="M32.8,17L18.2,0.8C17.8,0.3,17.1,0,16.5,0l0,0c-0.6,0-1.3,0.3-1.7,0.8L0.2,17c-0.3,0.3-0.3,0.9,0.1,1.2
	c0.2,0.1,0.4,0.2,0.6,0.2s0.4-0.1,0.6-0.3L5,14.2v13.3C4.9,28.9,6,30,7.4,30h18.2c1.4,0,2.5-1.1,2.5-2.5V14.2l3.5,3.9
	c0.3,0.3,0.8,0.4,1.2,0.1S33.1,17.3,32.8,17L32.8,17z M19.8,28.3h-6.6v-7.5c0-0.5,0.4-0.8,0.8-0.8h5c0.5,0,0.8,0.4,0.8,0.8V28.3z
	 M26.4,27.5c0,0.5-0.4,0.8-0.8,0.8h-4.1v-7.5c0-1.4-1.1-2.5-2.5-2.5h-5c-1.4,0-2.5,1.1-2.5,2.5v7.5H7.4c-0.5,0-0.8-0.4-0.8-0.8V12.4
	L16,1.9c0.1-0.1,0.3-0.2,0.5-0.2s0.4,0.1,0.5,0.2l9.4,10.5V27.5z"/>
</svg>
