<?xml version="1.0" encoding="utf-8"?>
<!-- Generator: Adobe Illustrator 21.1.0, SVG Export Plug-In . SVG Version: 6.00 Build 0)  -->
<svg version="1.1" id="Layer_1" xmlns="http://www.w3.org/2000/svg" xmlns:xlink="http://www.w3.org/1999/xlink" x="0px" y="0px"
	 viewBox="0 0 37 21" style="enable-background:new 0 0 37 21;" xml:space="preserve">
<style type="text/css">
	.st0{fill:#017CBF;}
</style>
<path class="st0" d="M34.9,21h-4.2l0,0c-0.4,0-0.7-0.3-0.7-0.7c0-0.4,0.3-0.7,0.7-0.7h4.2c0.4,0,0.7-0.3,0.7-0.7
	c0-0.2-0.1-3.5-5.6-3.5c-0.2,0-0.5,0-0.7,0c-0.4,0-0.7-0.3-0.7-0.7s0.3-0.7,0.7-0.7c0.2,0,0.5,0,0.7,0c1.5,0,2.9,0.2,4,0.7
	c0.9,0.4,1.6,0.9,2.2,1.7c0.9,1.2,0.9,2.5,0.9,2.5C37,20.1,36,21,34.9,21z M29.9,12.6c-2.3,0-4.2-1.9-4.2-4.2s1.9-4.2,4.2-4.2
	s4.2,1.9,4.2,4.2C34.2,10.7,32.3,12.6,29.9,12.6z M29.9,5.6c-1.6,0-2.8,1.3-2.8,2.8s1.3,2.8,2.8,2.8c1.6,0,2.8-1.3,2.8-2.8
	S31.5,5.6,29.9,5.6z M28.2,18.9c0,1.2-0.9,2.1-2.1,2.1H10.6c-1.2,0-2.1-0.9-2.1-2.1c0-0.1,0-1.7,1.3-3.2c0.7-0.9,1.8-1.6,3-2.1
	c1.5-0.6,3.4-0.9,5.6-0.9s4.1,0.3,5.6,0.9c1.2,0.5,2.3,1.2,3,2.1C28.2,17.2,28.2,18.8,28.2,18.9z M25.8,16.5
	c-1.4-1.6-3.9-2.5-7.4-2.5s-6.1,0.9-7.4,2.5c-1,1.2-1,2.4-1,2.4c0,0.4,0.3,0.7,0.7,0.7h15.5c0.4,0,0.7-0.3,0.7-0.7
	C26.8,18.9,26.8,17.6,25.8,16.5z M18.3,11.2c-3.1,0-5.6-2.5-5.6-5.6S15.2,0,18.3,0C21.5,0,24,2.5,24,5.6S21.5,11.2,18.3,11.2z
	 M18.3,1.4c-2.3,0-4.2,1.9-4.2,4.2s1.9,4.2,4.2,4.2s4.2-1.9,4.2-4.2S20.7,1.4,18.3,1.4z M7.1,12.6c-2.3,0-4.2-1.9-4.2-4.2
	s1.9-4.2,4.2-4.2s4.2,1.9,4.2,4.2C11.3,10.7,9.4,12.6,7.1,12.6z M7.1,5.6c-1.6,0-2.8,1.3-2.8,2.8s1.3,2.8,2.8,2.8
	c1.6,0,2.8-1.3,2.8-2.8S8.6,5.6,7.1,5.6z M7.1,14c0.2,0,0.5,0,0.7,0c0.4,0,0.7,0.3,0.7,0.7s-0.4,0.7-0.7,0.7c-0.2,0-0.4,0-0.7,0
	c-5.5,0-5.6,3.3-5.7,3.5c0,0.4,0.3,0.7,0.7,0.7h4.2c0.4,0,0.7,0.3,0.7,0.7C7,20.7,6.7,21,6.3,21l0,0H2.1C0.9,21,0,20.1,0,18.9
	c0,0,0-1.3,0.9-2.5c0.5-0.7,1.3-1.3,2.2-1.7C4.2,14.2,5.5,14,7.1,14z"/>
</svg>
