<svg xmlns="http://www.w3.org/2000/svg" width="27.391" height="28.512" viewBox="0 0 27.391 28.512">
  <g id="settings-on" transform="translate(-472.228 1259.755)">
    <path id="cog" d="M41.793,23.411l2.32,1.339a.654.654,0,0,1,.3.761,13.479,13.479,0,0,1-2.977,5.149.654.654,0,0,1-.807.123l-2.318-1.339A10.429,10.429,0,0,1,35,31.356v2.677a.654.654,0,0,1-.51.638,13.608,13.608,0,0,1-5.946,0,.655.655,0,0,1-.512-.638V31.356a10.428,10.428,0,0,1-3.308-1.912l-2.318,1.339a.654.654,0,0,1-.807-.123,13.48,13.48,0,0,1-2.977-5.149.655.655,0,0,1,.3-.761l2.32-1.339a10.533,10.533,0,0,1,0-3.821l-2.32-1.339a.654.654,0,0,1-.3-.761A13.479,13.479,0,0,1,21.6,12.34a.654.654,0,0,1,.807-.123l2.318,1.339a10.429,10.429,0,0,1,3.308-1.912V8.966a.654.654,0,0,1,.51-.638,13.608,13.608,0,0,1,5.946,0A.655.655,0,0,1,35,8.966v2.677a10.428,10.428,0,0,1,3.308,1.912l2.318-1.339a.654.654,0,0,1,.807.123,13.48,13.48,0,0,1,2.977,5.149.655.655,0,0,1-.3.761l-2.32,1.339a10.533,10.533,0,0,1,0,3.822ZM35.871,21.5a4.355,4.355,0,1,0-4.355,4.355A4.36,4.36,0,0,0,35.871,21.5Z" transform="translate(454.408 -1266.999)" fill="#1190d6" stroke="#1190d6" stroke-width="1.5"/>
  </g>
</svg>
